<?xml version="1.0" encoding="UTF-8" standalone="no"?>
<svg
   xmlns:dc="http://purl.org/dc/elements/1.1/"
   xmlns:cc="http://creativecommons.org/ns#"
   xmlns:rdf="http://www.w3.org/1999/02/22-rdf-syntax-ns#"
   xmlns:svg="http://www.w3.org/2000/svg"
   xmlns="http://www.w3.org/2000/svg"
   version="1.1"
   id="svg8502"
   height="168"
   width="564">
  <defs
     id="defs8504" />
  <metadata
     id="metadata8507">
    <rdf:RDF>
      <cc:Work
         rdf:about="">
        <dc:format>image/svg+xml</dc:format>
        <dc:type
           rdf:resource="http://purl.org/dc/dcmitype/StillImage" />
        <dc:title></dc:title>
        <dc:creator>
          <cc:Agent>
            <dc:title>Lucas Ramage</dc:title>
          </cc:Agent>
        </dc:creator>
        <dc:publisher>
          <cc:Agent>
            <dc:title>https://hexgearinc.gitlab.io</dc:title>
          </cc:Agent>
        </dc:publisher>
        <cc:license
           rdf:resource="http://creativecommons.org/licenses/by-sa/4.0/" />
        <dc:contributor>
          <cc:Agent>
            <dc:title />
          </cc:Agent>
        </dc:contributor>
        <dc:source>https://gitlab.com/fdroid/artwork/blob/master/badge/get-it-on.svg</dc:source>
      </cc:Work>
      <cc:License
         rdf:about="http://creativecommons.org/licenses/by-sa/4.0/">
        <cc:permits
           rdf:resource="http://creativecommons.org/ns#Reproduction" />
        <cc:permits
           rdf:resource="http://creativecommons.org/ns#Distribution" />
        <cc:requires
           rdf:resource="http://creativecommons.org/ns#Notice" />
        <cc:requires
           rdf:resource="http://creativecommons.org/ns#Attribution" />
        <cc:permits
           rdf:resource="http://creativecommons.org/ns#DerivativeWorks" />
        <cc:requires
           rdf:resource="http://creativecommons.org/ns#ShareAlike" />
      </cc:License>
    </rdf:RDF>
  </metadata>
  <g
     transform="translate(-330,-353.36218)"
     id="layer1">
    <path
       style="color:#000000;display:inline;overflow:visible;visibility:visible;fill:#000000;fill-opacity:1;fill-rule:nonzero;stroke:#a6a6a6;stroke-width:4;stroke-miterlimit:4;stroke-dasharray:none;stroke-opacity:1;marker:none;enable-background:accumulate"
       d="m 352,355.36218 h 520 c 11.08,0 20,8.92 20,20 v 124 c 0,11.08 -8.92,20 -20,20 H 352 c -11.08,0 -20,-8.92 -20,-20 v -124 c 0,-11.08 8.92,-20 20,-20 z"
       id="rect3007" />
    <g
       id="text3013"
       style="color:#000000;font-style:normal;font-variant:normal;font-weight:normal;font-stretch:normal;line-height:0%;font-family:'DejaVu Sans';-inkscape-font-specification:'DejaVu Sans';letter-spacing:0px;word-spacing:0px;display:inline;overflow:visible;visibility:visible;fill:#ffffff;fill-opacity:1;fill-rule:nonzero;stroke:none;stroke-width:1px;marker:none;enable-background:accumulate"
       aria-label="GET IT ON"
       transform="translate(0,8)">
      <path
         id="path964"
         style="font-style:normal;font-variant:normal;font-weight:normal;font-stretch:normal;font-size:34.125px;line-height:1;font-family:'DejaVu Sans';-inkscape-font-specification:'DejaVu Sans'"
         d="m 375.263,398.81784 v -6.6817 h -5.49866 v -2.76599 h 8.83118 v 10.68072 q -1.94952,1.383 -4.29895,2.09949 -2.34943,0.69983 -5.01544,0.69983 -5.83191,0 -9.13111,-3.39917 -3.28253,-3.41583 -3.28253,-9.49768 0,-6.09851 3.28253,-9.49768 3.2992,-3.41583 9.13111,-3.41583 2.43274,0 4.61554,0.59985 2.19946,0.59985 4.04901,1.76623 v 3.58246 q -1.86621,-1.58294 -3.9657,-2.38275 -2.09949,-0.7998 -4.41559,-0.7998 -4.56555,0 -6.86499,2.54937 -2.28277,2.54938 -2.28277,7.59815 0,5.0321 2.28277,7.58148 2.29944,2.54938 6.86499,2.54938 1.7829,0 3.18256,-0.29993 1.39966,-0.31659 2.51605,-0.96643 z" />
      <path
         id="path966"
         style="font-style:normal;font-variant:normal;font-weight:normal;font-stretch:normal;font-size:34.125px;line-height:1;font-family:'DejaVu Sans';-inkscape-font-specification:'DejaVu Sans'"
         d="m 384.76068,377.48972 h 15.72949 v 2.83264 h -12.36364 v 7.36487 h 11.8471 v 2.83264 h -11.8471 v 9.01446 h 12.66357 v 2.83264 h -16.02942 z" />
      <path
         id="path968"
         style="font-style:normal;font-variant:normal;font-weight:normal;font-stretch:normal;font-size:34.125px;line-height:1;font-family:'DejaVu Sans';-inkscape-font-specification:'DejaVu Sans'"
         d="m 402.90625,377.48972 h 21.04486 v 2.83264 h -8.83118 v 22.04461 h -3.3825 v -22.04461 h -8.83118 z" />
      <path
         id="path970"
         style="font-style:normal;font-variant:normal;font-weight:normal;font-stretch:normal;font-size:34.125px;line-height:1;font-family:'DejaVu Sans';-inkscape-font-specification:'DejaVu Sans'"
         d="m 438.08099,377.48972 h 3.36585 v 24.87725 h -3.36585 z" />
      <path
         id="path972"
         style="font-style:normal;font-variant:normal;font-weight:normal;font-stretch:normal;font-size:34.125px;line-height:1;font-family:'DejaVu Sans';-inkscape-font-specification:'DejaVu Sans'"
         d="m 444.69604,377.48972 h 21.04487 v 2.83264 h -8.83118 v 22.04461 h -3.38251 v -22.04461 h -8.83118 z" />
      <path
         id="path974"
         style="font-style:normal;font-variant:normal;font-weight:normal;font-stretch:normal;font-size:34.125px;line-height:1;font-family:'DejaVu Sans';-inkscape-font-specification:'DejaVu Sans'"
         d="m 489.96832,379.77249 q -3.66577,0 -5.83191,2.73267 -2.14947,2.73266 -2.14947,7.44818 0,4.69885 2.14947,7.43152 2.16614,2.73266 5.83191,2.73266 3.66577,0 5.79859,-2.73266 2.14947,-2.73267 2.14947,-7.43152 0,-4.71552 -2.14947,-7.44818 -2.13282,-2.73267 -5.79859,-2.73267 z m 0,-2.73266 q 5.23206,0 8.36463,3.5158 3.13257,3.49915 3.13257,9.39771 0,5.8819 -3.13257,9.3977 -3.13257,3.49915 -8.36463,3.49915 -5.24872,0 -8.39795,-3.49915 -3.13256,-3.49914 -3.13256,-9.3977 0,-5.89856 3.13256,-9.39771 3.14923,-3.5158 8.39795,-3.5158 z" />
      <path
         id="path976"
         style="font-style:normal;font-variant:normal;font-weight:normal;font-stretch:normal;font-size:34.125px;line-height:1;font-family:'DejaVu Sans';-inkscape-font-specification:'DejaVu Sans'"
         d="m 506.7309,377.48972 h 4.53222 l 11.03064,20.81158 v -20.81158 h 3.26587 v 24.87725 h -4.53223 l -11.03063,-20.81158 v 20.81158 h -3.26587 z" />
    </g>
    <g
       aria-label="GitLab CI/CD"
       style="font-style:normal;font-weight:normal;font-size:40px;line-height:1.25;font-family:sans-serif;letter-spacing:0px;word-spacing:0px;fill:#ffffff;fill-opacity:1;stroke:none"
       id="text4536">
      <path
         d="m 404.4245,480.81531 q -5.25,2.55208 -10.90104,3.82812 -5.65105,1.27604 -11.66667,1.27604 -13.59896,0 -21.54687,-7.58333 -7.94792,-7.61979 -7.94792,-20.63541 0,-13.16146 8.09375,-20.70834 8.09375,-7.54687 22.16667,-7.54687 5.43229,0 10.39062,1.02083 4.99479,1.02083 9.40625,3.02604 v 11.26563 q -4.55729,-2.58854 -9.07813,-3.86459 -4.48437,-1.27604 -9.0052,-1.27604 -8.38542,0 -12.94271,4.70313 -4.52083,4.66666 -4.52083,13.38021 0,8.64062 4.375,13.34374 4.375,4.70313 12.43229,4.70313 2.1875,0 4.04687,-0.25521 1.89583,-0.29167 3.39063,-0.875 v -10.57292 h -8.56771 v -9.40624 h 21.875 z"
         style="font-style:normal;font-variant:normal;font-weight:bold;font-stretch:normal;font-size:74.66666412px;font-family:sans-serif;-inkscape-font-specification:'sans-serif Bold'"
         id="path4539" />
      <path
         d="m 416.16408,444.02885 h 13.05208 v 40.83333 h -13.05208 z m 0,-15.89583 h 13.05208 v 10.64583 h -13.05208 z"
         style="font-style:normal;font-variant:normal;font-weight:bold;font-stretch:normal;font-size:74.66666412px;font-family:sans-serif;-inkscape-font-specification:'sans-serif Bold'"
         id="path4541" />
      <path
         d="m 456.08595,432.4351 v 11.59375 h 13.45313 v 9.33333 h -13.45313 v 17.31771 q 0,2.84375 1.13021,3.86458 1.13021,0.98438 4.48438,0.98438 h 6.70833 v 9.33333 h -11.19271 q -7.72916,0 -10.97396,-3.20833 -3.20833,-3.24479 -3.20833,-10.97396 v -17.31771 h -6.48958 v -9.33333 h 6.48958 V 432.4351 Z"
         style="font-style:normal;font-variant:normal;font-weight:bold;font-stretch:normal;font-size:74.66666412px;font-family:sans-serif;-inkscape-font-specification:'sans-serif Bold'"
         id="path4543" />
      <path
         d="m 478.14324,430.42989 h 14.03646 v 43.82292 h 24.64583 v 10.60937 h -38.68229 z"
         style="font-style:normal;font-variant:normal;font-weight:bold;font-stretch:normal;font-size:74.66666412px;font-family:sans-serif;-inkscape-font-specification:'sans-serif Bold'"
         id="path4545" />
      <path
         d="m 543.40365,466.48718 q -4.08333,0 -6.16146,1.38542 -2.04166,1.38542 -2.04166,4.08333 0,2.47917 1.64062,3.90104 1.67708,1.38542 4.63021,1.38542 3.68229,0 6.19791,-2.625 2.51563,-2.66146 2.51563,-6.63542 v -1.49479 z m 19.94271,-4.92187 v 23.29687 H 550.1849 v -6.05208 q -2.625,3.71875 -5.90625,5.43229 -3.28125,1.67708 -7.98437,1.67708 -6.34375,0 -10.31771,-3.68229 -3.9375,-3.71875 -3.9375,-9.625 0,-7.18229 4.92187,-10.53645 4.95834,-3.35417 15.53125,-3.35417 h 7.69271 v -1.02083 q 0,-3.09896 -2.44271,-4.52084 -2.44271,-1.45833 -7.61979,-1.45833 -4.19271,0 -7.80208,0.83854 -3.60938,0.83854 -6.70834,2.51563 v -9.95313 q 4.19271,-1.02083 8.42188,-1.53125 4.22917,-0.54687 8.45833,-0.54687 11.04688,0 15.93229,4.375 4.92188,4.33854 4.92188,14.14583 z"
         style="font-style:normal;font-variant:normal;font-weight:bold;font-stretch:normal;font-size:74.66666412px;font-family:sans-serif;-inkscape-font-specification:'sans-serif Bold'"
         id="path4547" />
      <path
         d="m 597.28908,476.44031 q 4.1927,0 6.3802,-3.0625 2.22396,-3.0625 2.22396,-8.89584 0,-5.83333 -2.22396,-8.89583 -2.1875,-3.0625 -6.3802,-3.0625 -4.19271,0 -6.45313,3.09896 -2.22396,3.0625 -2.22396,8.85937 0,5.79688 2.22396,8.89584 2.26042,3.0625 6.45313,3.0625 z m -8.67709,-26.43229 q 2.69792,-3.57292 5.97917,-5.25 3.28125,-1.71354 7.54687,-1.71354 7.54688,0 12.39584,6.01562 4.84896,5.97917 4.84896,15.42187 0,9.44271 -4.84896,15.45834 -4.84896,5.97916 -12.39584,5.97916 -4.26562,0 -7.54687,-1.67708 -3.28125,-1.71354 -5.97917,-5.28646 v 5.90625 h -13.05208 v -56.72916 h 13.05208 z"
         style="font-style:normal;font-variant:normal;font-weight:bold;font-stretch:normal;font-size:74.66666412px;font-family:sans-serif;-inkscape-font-specification:'sans-serif Bold'"
         id="path4549" />
      <path
         d="m 698.78908,481.8726 q -3.86458,2.00521 -8.05729,3.02604 -4.19271,1.02083 -8.75,1.02083 -13.59896,0 -21.54687,-7.58333 -7.94792,-7.61979 -7.94792,-20.63541 0,-13.05209 7.94792,-20.63542 7.94791,-7.61979 21.54687,-7.61979 4.55729,0 8.75,1.02083 4.19271,1.02083 8.05729,3.02604 v 11.26563 q -3.90104,-2.66146 -7.69271,-3.90104 -3.79166,-1.23959 -7.98437,-1.23959 -7.51042,0 -11.8125,4.8125 -4.30208,4.8125 -4.30208,13.27084 0,8.42187 4.30208,13.23437 4.30208,4.8125 11.8125,4.8125 4.19271,0 7.98437,-1.23958 3.79167,-1.23959 7.69271,-3.90105 z"
         style="font-style:normal;font-variant:normal;font-weight:bold;font-stretch:normal;font-size:74.66666412px;font-family:sans-serif;-inkscape-font-specification:'sans-serif Bold'"
         id="path4551" />
      <path
         d="m 710.45573,430.42989 h 14.03646 v 54.43229 h -14.03646 z"
         style="font-style:normal;font-variant:normal;font-weight:bold;font-stretch:normal;font-size:74.66666412px;font-family:sans-serif;-inkscape-font-specification:'sans-serif Bold'"
         id="path4553" />
      <path
         d="m 750.63283,430.42989 h 8.09375 l -19.21354,61.35938 h -8.05729 z"
         style="font-style:normal;font-variant:normal;font-weight:bold;font-stretch:normal;font-size:74.66666412px;font-family:sans-serif;-inkscape-font-specification:'sans-serif Bold'"
         id="path4555" />
      <path
         d="m 808.74739,481.8726 q -3.86458,2.00521 -8.05729,3.02604 -4.19271,1.02083 -8.75,1.02083 -13.59895,0 -21.54687,-7.58333 -7.94792,-7.61979 -7.94792,-20.63541 0,-13.05209 7.94792,-20.63542 7.94792,-7.61979 21.54687,-7.61979 4.55729,0 8.75,1.02083 4.19271,1.02083 8.05729,3.02604 v 11.26563 q -3.90104,-2.66146 -7.6927,-3.90104 -3.79167,-1.23959 -7.98438,-1.23959 -7.51042,0 -11.8125,4.8125 -4.30208,4.8125 -4.30208,13.27084 0,8.42187 4.30208,13.23437 4.30208,4.8125 11.8125,4.8125 4.19271,0 7.98438,-1.23958 3.79166,-1.23959 7.6927,-3.90105 z"
         style="font-style:normal;font-variant:normal;font-weight:bold;font-stretch:normal;font-size:74.66666412px;font-family:sans-serif;-inkscape-font-specification:'sans-serif Bold'"
         id="path4557" />
      <path
         d="m 834.45053,441.03927 v 33.21354 h 5.03125 q 8.60417,0 13.125,-4.26563 4.55729,-4.26562 4.55729,-12.39583 0,-8.09375 -4.52083,-12.32292 -4.52084,-4.22916 -13.16146,-4.22916 z m -14.03646,-10.60938 h 14.80209 q 12.39583,0 18.44791,1.78646 6.08854,1.75 10.42708,5.97917 3.82813,3.68229 5.6875,8.49479 1.85938,4.8125 1.85938,10.90104 0,6.16146 -1.85938,11.01042 -1.85937,4.8125 -5.6875,8.49479 -4.375,4.22916 -10.5,6.01562 -6.125,1.75 -18.37499,1.75 h -14.80209 z"
         style="font-style:normal;font-variant:normal;font-weight:bold;font-stretch:normal;font-size:74.66666412px;font-family:sans-serif;-inkscape-font-specification:'sans-serif Bold'"
         id="path4559" />
    </g>
  </g>
</svg>
